{
  "project_info": {
    "project_number": "903923035545",
    "firebase_url": "https://sharevans-ff2e8.firebaseio.com",
    "project_id": "sharevans-ff2e8",
    "storage_bucket": "sharevans-ff2e8.appspot.com"
  },
  "client": [
    {
      "client_info": {
        "mobilesdk_app_id": "1:903923035545:android:faf328c1b38ae2eced3708",
        "android_client_info": {
          "package_name": "com.nextsolution.vancustomer"
        }
      },
      "oauth_client": [
        {
          "client_id": "903923035545-qibhmuqej74ufmj2n298a4camdup4guq.apps.googleusercontent.com",
          "client_type": 3
        }
      ],
      "api_key": [
        {
          "current_key": "AIzaSyC5pJWg8pBXFwKxu4w1AgWmuh8Jg5CUMR8"
        }
      ],
      "services": {
        "appinvite_service": {
          "other_platform_oauth_client": [
            {
              "client_id": "903923035545-qibhmuqej74ufmj2n298a4camdup4guq.apps.googleusercontent.com",
              "client_type": 3
            }
          ]
        }
      }
    },
    {
      "client_info": {
        "mobilesdk_app_id": "1:903923035545:android:f12864a84652fd5ded3708",
        "android_client_info": {
          "package_name": "com.ts.sharevandriver"
        }
      },
      "oauth_client": [
        {
          "client_id": "903923035545-qibhmuqej74ufmj2n298a4camdup4guq.apps.googleusercontent.com",
          "client_type": 3
        }
      ],
      "api_key": [
        {
          "current_key": "AIzaSyC5pJWg8pBXFwKxu4w1AgWmuh8Jg5CUMR8"
        }
      ],
      "services": {
        "appinvite_service": {
          "other_platform_oauth_client": [
            {
              "client_id": "903923035545-qibhmuqej74ufmj2n298a4camdup4guq.apps.googleusercontent.com",
              "client_type": 3
            }
          ]
        }
      }
    }
  ],
  "configuration_version": "1"
}